<svg xmlns="http://www.w3.org/2000/svg" xmlns:xlink="http://www.w3.org/1999/xlink" version="1.1" width="100" height="100" viewBox="0 0 100 100">

<title/>
<script type="text/javascript">
var metadata = {
	"Designer": "Anas Ramadan",
	"Organization": "RichStyle.org",
	"Year": "2012",
	"Country": "Syria",
	"License": "CC-BY-3.0"
   }
</script>

<path fill="#EF0008" d="M 15.673434,13.623097 A 50,50 0 0 0 14.656968,85.350241 50,50 0 0 0 85.367646,14.639563 50,50 0 0 0 15.673434,13.623097 z M 25.26357,35.14566 35.163065,25.246165 50.012307,40.095407 64.861549,25.246165 74.761044,35.14566 59.911802,50 74.761044,64.844145 64.861549,74.74364 50.012307,59.894397 35.163065,74.74364 25.26357,64.844145 40.112812,50 25.26357,35.14566 z"/>
</svg>
