<svg xmlns="http://www.w3.org/2000/svg" xmlns:xlink="http://www.w3.org/1999/xlink" version="1.1" baseProfile="tiny" x="0px" y="0px" width="100px" height="100px" viewBox="0 0 100 100" xml:space="preserve">
<g id="Captions">
</g>
<g id="Your_Icon">
	<path fill-rule="evenodd" fill="#000000" d="M34,28.061v-8c0-5-1.061-6-6-6L20,14c-4.76,0-6,1.121-6,6v8c0,4.941,1,6,6,6h8   C33,34,34,33,34,28.061z M34,54.061v-8c0-5-1.061-6-6-6L20,40c-4.76,0-6,1.121-6,6v8c0,4.941,1,6,6,6h8C33,60,34,59,34,54.061z    M34,80.061v-8c0-5-1.061-6-6-6L20,66c-4.76,0-6,1.121-6,6v8c0,4.941,1,6,6,6h8C33,86,34,85,34,80.061z M60,28.061v-8   c0-5-1.061-6-6-6L46,14c-4.76,0-6,1.121-6,6v8c0,4.941,1,6,6,6h8C59,34,60,33,60,28.061z M60,54.061v-8c0-5-1.061-6-6-6L46,40   c-4.76,0-6,1.121-6,6v8c0,4.941,1,6,6,6h8C59,60,60,59,60,54.061z M60,80.061v-8c0-5-1.061-6-6-6L46,66c-4.76,0-6,1.121-6,6v8   c0,4.941,1,6,6,6h8C59,86,60,85,60,80.061z M86,28.061v-8c0-5-1.061-6-6-6L72,14c-4.76,0-6,1.121-6,6v8c0,4.941,1,6,6,6h8   C85,34,86,33,86,28.061z M86,54.061v-8c0-5-1.061-6-6-6L72,40c-4.76,0-6,1.121-6,6v8c0,4.941,1,6,6,6h8C85,60,86,59,86,54.061z    M86,80.061v-8c0-5-1.061-6-6-6L72,66c-4.76,0-6,1.121-6,6v8c0,4.941,1,6,6,6h8C85,86,86,85,86,80.061z"/>
</g>
</svg>