<svg xmlns="http://www.w3.org/2000/svg" xmlns:xlink="http://www.w3.org/1999/xlink" version="1.1" baseProfile="tiny" x="0px" y="0px" width="100px" height="100px" viewBox="0 0 100 100" xml:space="preserve">
<g id="Captions">
</g>
<g id="Your_Icon">
	<path fill-rule="evenodd" fill="#000000" d="M50.877,28.449C38.02,8.593,12,19.41,12,41.041C12,57.285,47.672,82.695,50.877,86   C54.102,82.695,88,57.285,88,41.041C88,19.574,63.756,8.593,50.877,28.449z"/>
</g>
</svg>