<?xml version="1.0" encoding="UTF-8" standalone="no"?>
<!-- Created with Inkscape (http://www.inkscape.org/) -->

<svg
   xmlns:dc="http://purl.org/dc/elements/1.1/"
   xmlns:cc="http://creativecommons.org/ns#"
   xmlns:rdf="http://www.w3.org/1999/02/22-rdf-syntax-ns#"
   xmlns:svg="http://www.w3.org/2000/svg"
   xmlns="http://www.w3.org/2000/svg"
   xmlns:sodipodi="http://sodipodi.sourceforge.net/DTD/sodipodi-0.dtd"
   xmlns:inkscape="http://www.inkscape.org/namespaces/inkscape"
   width="418.31641"
   height="55"
   id="svg2"
   version="1.1"
   inkscape:version="0.48.4 r9939"
   sodipodi:docname="prodoko-base-logo.svg"
   inkscape:export-filename="/home/walec51/Pobrane/prodoko-mes-logo.png"
   inkscape:export-xdpi="82.833328"
   inkscape:export-ydpi="82.833328">
  <defs
     id="defs4">
    <inkscape:perspective
       sodipodi:type="inkscape:persp3d"
       inkscape:vp_x="0 : 27.5 : 1"
       inkscape:vp_y="0 : 1000 : 0"
       inkscape:vp_z="314.39978 : 27.5 : 1"
       inkscape:persp3d-origin="157.19989 : 18.333333 : 1"
       id="perspective3027" />
  </defs>
  <sodipodi:namedview
     id="base"
     pagecolor="#ffffff"
     bordercolor="#666666"
     borderopacity="1.0"
     inkscape:pageopacity="0.0"
     inkscape:pageshadow="2"
     inkscape:zoom="1.4"
     inkscape:cx="220.43721"
     inkscape:cy="25.334312"
     inkscape:document-units="px"
     inkscape:current-layer="layer1"
     showgrid="false"
     inkscape:window-width="1192"
     inkscape:window-height="545"
     inkscape:window-x="157"
     inkscape:window-y="570"
     inkscape:window-maximized="0"
     fit-margin-left="0"
     fit-margin-bottom="0"
     fit-margin-right="0"
     fit-margin-top="0" />
  <metadata
     id="metadata7">
    <rdf:RDF>
      <cc:Work
         rdf:about="">
        <dc:format>image/svg+xml</dc:format>
        <dc:type
           rdf:resource="http://purl.org/dc/dcmitype/StillImage" />
        <dc:title />
      </cc:Work>
    </rdf:RDF>
  </metadata>
  <g
     inkscape:label="Layer 1"
     inkscape:groupmode="layer"
     id="layer1"
     transform="translate(5.014205,1.5246333)">
    <rect
       style="fill:#333333;fill-opacity:1"
       id="rect3025"
       width="271.78574"
       height="55"
       x="-5.014205"
       y="-1.5246333" />
    <text
       xml:space="preserve"
       style="font-size:46.94262314px;font-style:normal;font-variant:normal;font-weight:bold;font-stretch:normal;text-align:start;line-height:125%;letter-spacing:0px;word-spacing:0px;writing-mode:lr-tb;text-anchor:start;fill:#ffffff;fill-opacity:1;stroke:none;font-family:Montserrat;-inkscape-font-specification:Montserrat Bold"
       x="7.1621995"
       y="42.569584"
       id="text2985"
       sodipodi:linespacing="125%"><tspan
         sodipodi:role="line"
         id="tspan2987"
         x="7.1621995"
         y="42.569584">PRODOKO</tspan></text>
    <text
       xml:space="preserve"
       style="font-size:46.94262314000000202px;font-style:normal;font-variant:normal;font-weight:bold;font-stretch:normal;text-align:start;line-height:125%;letter-spacing:0px;word-spacing:0px;writing-mode:lr-tb;text-anchor:start;fill:#0f8e00;fill-opacity:1;stroke:none;font-family:Montserrat;-inkscape-font-specification:Montserrat Bold"
       x="273.40103"
       y="42.569584"
       id="text2985-4"
       sodipodi:linespacing="125%"><tspan
         sodipodi:role="line"
         id="tspan2987-2"
         x="273.40103"
         y="42.569584">BASE</tspan></text>
    <rect
       style="fill:#333333;fill-opacity:1"
       id="rect3025-8"
       width="6.7939992"
       height="55"
       x="406.50821"
       y="-1.5246333" />
  </g>
</svg>
